Week 7
…
tp_model_example <- cc_by_results(model_example, "True Positive", 50)

## # A tibble: 39 x 3
## # Groups:   results [1]
##    results       cc1.x                     count
##    <chr>         <fct>                     <int>
##  1 True Positive COUGH                        20
##  2 True Positive FEVER                        15
##  3 True Positive SOB - SHORTNESS OF BREATH     7
##  4 True Positive SHORTNESS OF BREATH           6
##  5 True Positive COUGH/CONGESTION              6
##  6 True Positive FLU-LIKE SYMPTOMS             5
##  7 True Positive BACK PAIN                     4
##  8 True Positive CP - CHEST PAIN               4
##  9 True Positive HYPOXEMIA                     4
## 10 True Positive BODY ACHES                    4
## # ... with 29 more rows

tn_model_example <- cc_by_results(model_example, "True Negative", 50) 

## # A tibble: 50 x 3
## # Groups:   results [1]
##    results       cc1.x                       count
##    <chr>         <fct>                       <int>
##  1 True Negative ABD PAIN                      105
##  2 True Negative STOMACH ACHE                   77
##  3 True Negative ABDOMINAL PAIN                 72
##  4 True Negative ABNORMAL LABS                  69
##  5 True Negative S/P FALL                       56
##  6 True Negative AMS - ALTERED MENTAL STATUS    38
##  7 True Negative ALTERED MENTAL STATUS          37
##  8 True Negative CHEST PRESSURE                 36
##  9 True Negative DIZZINESS                      32
## 10 True Negative STOMACHACHE                    32
## # ... with 40 more rows

fp_model_example <- cc_by_results(model_example, "False Positive", 50) 

## # A tibble: 50 x 3
## # Groups:   results [1]
##    results        cc1.x                     count
##    <chr>          <fct>                     <int>
##  1 False Positive FEVER                        83
##  2 False Positive SHORTNESS OF BREATH          60
##  3 False Positive DYSPNEA                      49
##  4 False Positive SOB - SHORTNESS OF BREATH    44
##  5 False Positive COUGH                        39
##  6 False Positive CHEST PAIN                   38
##  7 False Positive BACK PAIN                    33
##  8 False Positive CP - CHEST PAIN              33
##  9 False Positive DIARRHEA                     33
## 10 False Positive WEAKNESS                     26
## # ... with 40 more rows

fn_model_example <- cc_by_results(model_example, "False Negative", 50) 

## # A tibble: 34 x 3
## # Groups:   results [1]
##    results        cc1.x                     count
##    <chr>          <fct>                     <int>
##  1 False Negative STOMACH ACHE                  4
##  2 False Negative ABDOMINAL PAIN                3
##  3 False Negative ALTERED MENTAL STATUS         3
##  4 False Negative ABD PAIN                      2
##  5 False Negative ABNORMAL LABS                 2
##  6 False Negative ABDOMINAL MASS/DISTENTION     2
##  7 False Negative S/P FALL                      1
##  8 False Negative CHEST PRESSURE                1
##  9 False Negative CHEST TIGHTNESS               1
## 10 False Negative SI - SUICIDAL IDEATION        1
## # ... with 24 more rows

tp_model_example 

## # A tibble: 39 x 3
## # Groups:   results [1]
##    results       cc1.x                     count
##    <chr>         <fct>                     <int>
##  1 True Positive COUGH                        20
##  2 True Positive FEVER                        15
##  3 True Positive SOB - SHORTNESS OF BREATH     7
##  4 True Positive SHORTNESS OF BREATH           6
##  5 True Positive COUGH/CONGESTION              6
##  6 True Positive FLU-LIKE SYMPTOMS             5
##  7 True Positive BACK PAIN                     4
##  8 True Positive CP - CHEST PAIN               4
##  9 True Positive HYPOXEMIA                     4
## 10 True Positive BODY ACHES                    4
## # ... with 29 more rows

tn_model_example  

## # A tibble: 50 x 3
## # Groups:   results [1]
##    results       cc1.x                       count
##    <chr>         <fct>                       <int>
##  1 True Negative ABD PAIN                      105
##  2 True Negative STOMACH ACHE                   77
##  3 True Negative ABDOMINAL PAIN                 72
##  4 True Negative ABNORMAL LABS                  69
##  5 True Negative S/P FALL                       56
##  6 True Negative AMS - ALTERED MENTAL STATUS    38
##  7 True Negative ALTERED MENTAL STATUS          37
##  8 True Negative CHEST PRESSURE                 36
##  9 True Negative DIZZINESS                      32
## 10 True Negative STOMACHACHE                    32
## # ... with 40 more rows

fp_model_example 

## # A tibble: 50 x 3
## # Groups:   results [1]
##    results        cc1.x                     count
##    <chr>          <fct>                     <int>
##  1 False Positive FEVER                        83
##  2 False Positive SHORTNESS OF BREATH          60
##  3 False Positive DYSPNEA                      49
##  4 False Positive SOB - SHORTNESS OF BREATH    44
##  5 False Positive COUGH                        39
##  6 False Positive CHEST PAIN                   38
##  7 False Positive BACK PAIN                    33
##  8 False Positive CP - CHEST PAIN              33
##  9 False Positive DIARRHEA                     33
## 10 False Positive WEAKNESS                     26
## # ... with 40 more rows

fn_model_example 

## # A tibble: 34 x 3
## # Groups:   results [1]
##    results        cc1.x                     count
##    <chr>          <fct>                     <int>
##  1 False Negative STOMACH ACHE                  4
##  2 False Negative ABDOMINAL PAIN                3
##  3 False Negative ALTERED MENTAL STATUS         3
##  4 False Negative ABD PAIN                      2
##  5 False Negative ABNORMAL LABS                 2
##  6 False Negative ABDOMINAL MASS/DISTENTION     2
##  7 False Negative S/P FALL                      1
##  8 False Negative CHEST PRESSURE                1
##  9 False Negative CHEST TIGHTNESS               1
## 10 False Negative SI - SUICIDAL IDEATION        1
## # ... with 24 more rows
…
